…
The package provides administrative district information in 2023 into
`tibble` format. You can show all the information as follows:

> このパッケージは2023年の行政区域データを`tibble`形式で提供します。
> 以下のようにして全ての情報を表示することができます。

``` r
aichi_districts
#> Simple feature collection with 69 features and 4 fields
#> Geometry type: GEOMETRY
#> Dimension:     XY
#> Bounding box:  xmin: 136.671 ymin: 34.57354 xmax: 137.8381 ymax: 35.42479
#> Geodetic CRS:  WGS 84
#> # A tibble: 69 × 5
#>    city_code city                   city_kanji    area                      geom
#>  * <chr>     <chr>                  <chr>        [m^2]             <POLYGON [°]>
#>  1 23101     Nagoya-shi Chikusa-ku  名古屋市 …  1.82e7 ((136.9857 35.19284, 136…
#>  2 23102     Nagoya-shi Higashi-ku  名古屋市 …  7.71e6 ((136.9073 35.18587, 136…
#>  3 23103     Nagoya-shi Kita-ku     名古屋市 …  1.75e7 ((136.9284 35.22506, 136…
#>  4 23104     Nagoya-shi Nishi-ku    名古屋市 …  1.79e7 ((136.9056 35.22525, 136…
#>  5 23105     Nagoya-shi Nakamura-ku 名古屋市 …  1.63e7 ((136.8813 35.17113, 136…
#>  6 23106     Nagoya-shi Naka-ku     名古屋市 …  9.38e6 ((136.9022 35.18605, 136…
#>  7 23107     Nagoya-shi Showa-ku    名古屋市 …  1.09e7 ((136.9167 35.13743, 136…
#>  8 23108     Nagoya-shi Mizuho-ku   名古屋市 …  1.12e7 ((136.9582 35.13567, 136…
#>  9 23109     Nagoya-shi Atsuta-ku   名古屋市 …  8.20e6 ((136.8958 35.14236, 136…
#> 10 23110     Nagoya-shi Nakagawa-ku 名古屋市 …  3.20e7 ((136.8083 35.16739, 136…
#> # ℹ 59 more rows
```
…
